﻿Sentimiento,Opinion
1,el dólar se debilita porque la inflación en estados unidos bajó a 85 menor a lo anticipado por los analistas
0,el dólar se fortaleció hoy a nivel internacional por temor a recesión y mayores alzas en tasas en méxico
1,desplome en mercados accionarios por riesgo de recesión en estados unidos  el dólar bajó a nivel internacional
1,sigue súper peso el dólar bajó a 1950 pesos entre los factores que ayudan a nuestra divisa están el debilitamiento
1,los mercados bursátiles optimistas el dólar retrocedió y cerró en 2086 pesos la mezcla mexicana bajó
0,el dólar se está fortaleciendo contra todas las divisas asiáticas y continuará con esta tendencia
0,aunque el dólar se está fortaleciendo a nivel internacional en méxico está ya en 2141 pesos
0,ojo ante la incertidumbre sobre nombramiento de gobernador en  el dólar ya está arriba de 21 pesos
0,la ratificación de jerome powell como presidente de la fed subió al dólar porque garantiza continuidad
0,el dólar subió hoy en niveles de 2060 pesos por la presión en los mercados ante expectativa de que las tasas
0,aquí la gráfica del peso y del dólar para que nadie diga que el dólar está débil hoy fue la divisa número 14 en
1,hoy fue un día malo para el dólar tras el anuncio de la fed el peso se apreció 1
0,por fortalecimiento del dólar mezcla mexicana tropieza y se vende en 6367 dólares por barril
1,comienza el dólar la semana bajando alrededor de los 19 pesos al mayoreo
1,baja el dólar ahora a 1875 mayoreo luego de llegar a 1951 pesos en la madrugada
1,regresa la baja del dólar interbancario cerca de 19 pesos así ha estado en 3 días
1,la baja del dólar buen regalo de cumpleaños para el doctor carstens felicidades agustín
1,así se ve el dólar los últimos 30 días la caída de hoy por realización de ganancias en dólares
1,hoy se desploma el dólar y se vende en 1812 al mayoreo
1,y sigue el dólar cuesta abajo por lo menos hoy bajó 19 centavos desde las 730 am
1,el discurso de yellen permitió que el dólar baje
1,sigue el dólar su camino a la baja ya está en 1726 el interbancario podrá llegar a 17
1,el dólar sigue a la baja está en 1750 el interbancario y 1783 en ventanilla
1,finalmente el dólar en ventanilla cerrará por debajo de los 18 pesos hoy está casi al final de las operaciones en 1793
0,la expectativa de que hoy la fed diga que la economía de eu va bien empuja para arriba al dólar
0,el dólar subió esta mañana de los 18 está en 19 al mayoreo a ver si se mantiene
0,de nuevo día de infarto en el mercado cambiario 1935 dólar subió 1911 interbancario
1,el gusto duró poco el dólar interbancario baja a 1791 tras declaraciones de carstens en parís sobre mercados emergentes
1,finalmente día de pérdida para el dólar se cotiza a las 9 am en 1777 pesos al mayoreo y 1805 en ventanilla
0,es malo tener un dólar alto   miscoordenadas
1,el dólar tocó por la mañana un mínimo histórico de 1747 en el mercado interbancario y regresó a 1744 a las 9 am
1,se debilita el dólar cotiza por abajo de 17 pesos el interbancario
0,un día más de volatilidad precios del crudo y el dólar sube ya está en 1735 interbancario y 1762 al menudeo
1,por lo pronto contra lo esperado el dólar se debilita contra otras monedas al mayoreo arranca en 1695 pesos
1,tras la baja de tasas en china el dólar se abarató ya 27 centavos 1693 al mayoreo
0,dólar caro   miscoordenadas
1,el hecho de que el dólar baje a 16 pesos poco tiene que ver con la economía mexicana sino con datos positivos de empleo en eu
1,dólar caro y ductos claves del éxito
1,y cuándo bajará el dólar siguemiscoordenadas
0,demasiado alto el nivel del dólar siguemiscoordenadas
1,decrecimiento del dólar en meses cotiza en 1287 por dólar al mayoreo
0,el dólar sube ya se cotiza en 1355 pesos en las ventanillas bancarias sigue el nerviosismo por la fed y el techo de la deuda en eu
1,el dólar inicia pesimista sus operaciones agosto2022
1,este martes inicia débil el dólar
1,este martes el dólar anda pesimista los mercados analizan los temas de coyuntur…
0,nada detiene al dólar incluso ha logrado alcanzar un nivel máximo de 20 años ante la aversión a los riesgos económicos
1,este lunes el dólar retrocede y los mercados analizan los temas
1,a debilidad del dólar al final cedió a la espera
0,tras 8 jornadas el dólar se ha fortalecido
1,este miércoles el dólar se depreció 593 ctvos de acuerdo con  cerró en 2001 unidades
0,el fortalecimiento del dólar es debido a los temores de las consecuencias por la inflación
0,el dólar ganó terreno como inversión de refugio y mañana se mantendrá sobre todo tras la orden de alerta a 8500
0,el dólar cerró la sesión con una apreciación de 13 ctvos gran fortaleza del dólar puesto que el mercado
0,el dólar se aprecia más de 12 centavos
0,tras de que el dólar se fortaleció por la confirmación de jerome powell como presidente de la fed
0,tras ceder terreno en las últimas dos semanas el dólar hoy mostró una recuperación técnica que desfavoreció
0,los temores por la inflación y un recorte de estímulos de la fed han fortalecido al dólar en los últimos 4 días
1,el dólar se depreció apenas un 002 para quedar en 1990
0,tras cuatro sesiones de avance el dólar mostró una ligera corrección no obstante el peso no logró sostener el empleo
0,el dólar se depreció 77 centavos y de acuerdo con  finalizó en 1995
0,el dólar se fortaleció ante la perspectiva de que la política flexible de la fed cambie por el temor a la inflación
0,el dólar se fortaleció este jueves tras el anuncio de que el gobierno de joe biden propondrá elevar los impuestos
0,el dólar se fortaleció tras de que las minutas de la fed mostraron que aún no se cumplen las condiciones de pleno
0,el dólar volvió a fortalecerse por el nuevo  incremento de las tasas de interés de los bonos del tesoro de eu ello
1,el dólar se muestra ligeramente débil a la espera de los estímulos monetarios y ante la certeza de que la fed
0,el dólar se fortaleció este jueves tras noticias económicas favorables como la creación de empleos en eu por 174
0,hoy el dólar se fortaleció debido a la cautela que priva en los mercados a la espera de nuevos datos económicos
1,el dólar cerró este martes con una pérdida de unos 25 ctvos  debido a la expectativa de que el próximo
1,el dólar se depreció casi 20 ctvos para cerrar al mayoreo por debajo de los 20 pesos
1,el dólar cerró en su peor nivel en 8 meses
1,el dólar tuvo una ligera depreciación frente de 17 ctvos para quedar en 2107 unidades por billete verde
1,la moneda se depreció 273 ctvos para quedar en unos  2212 pesos
0,una vez más el dólar se benefició de la volatilidad  la lejanía de un nuevo paquete de apoyo fiscal en eui y la
1,en la apertura el dólar cedió terreno por el elevado número de solicitudes de apoyo por desempleo en eu
0,el dólar se fortaleció porque la creación de empleos superó lo esperado sin embargo la lucha de trump con los
1,la debilidad del dólar por segunda sesión permitió otra ligera
1,el dólar se mostró débil hoy por la certeza de que la fed mantendrá su política monetaria acomodaticia la balanza
0,el dólar terminó la  jornada  con ganancias afectado por una mayor aversión a los activos de riesgo
1,el dólar se debilitó tras de que la fed anunció que la recompra de bonos será de aquellos con calificación de riesgo
1,el dólar cerró operaciones con pérdidas frente al peso
1,una mayor estabilidad en los mercados debilitó ligeramente al dólar y ayudó a una quinta jornada de recuperación
0,el dólar se aprecia este lunes más de 30 centavos para situarse en 2395 pesos
0,el dólar opera con ganancias en medio de preocupaciones sobre la relación comercial entre china y eu
1,debido a la debilidad del dólar y cierto apetito por riesgo en los mercados
0,el dólar se apreció 28 centavos en el mercado interbancario al cerrar en 2415
0,el dólar volvió a ganar este jueves tras la baja de la nota soberana a méxico
0,el dólar se apreció 125 para cerrar en 2164 pesos por dólar en ventanilla se vendió
0,el dólar ganó 38 centavos frente al peso cerró en 1953 pesos por billete verde y en algunos bancos
0,el dólar opera con una ligera ganancia tras 3 jornadas
0,el dólar gana 080 y perfila su tercera jornada con ganancias
1,platicamos con  de  sobre la debilidad del dólar presumida por el gobierno
0,el dólar se aprecia 174 esta mañana luego de darse a conocer el aumento en la tasa de referencia
1,así el dólar con nuevo mínimo en el año con 1945 pesos por billete verde
1,el dólar anda muy débil los dineros con  con  por
1,el dólar pierde y los riesgos  lo explica
1,el dólar baja y se cotiza por debajo de los 20 pesos losdineros con  con  por
1,el dólar se ha abaratado ya bajó de 20 pesos y hay algunas explicaciones que podemos encontrar en la posición
1,el dólar se abarata hasta los  196
1,el dólar podría bajar a los  1850 y el pib podría crecer entre 28 y 38 este año entre los pronósticos
1,mientras tanto el dólar se abarata
1,qué factores están detrás de la caída del dólar
1,estamos ante un dólar debilucho mi texto de hoy sábado en
1,el dólar cerró las operaciones de hoy con una ligera pérdida el tipo de cambio
0,el dólar se apreció contra el peso este martes el tipo de cambio terminó en 201310 unidades por
0,el dólar subió este martes el tipo de cambio cerró  operaciones en 200480 unidades
0,el dólar subió por quinta jornada consecutiva el tipo de cambio cerró operaciones
0,apertura el dólar se aprecia 080 y perfila su tercera jornada con ganancias
0,el índice dólar está en máximos históricos pero cómo afecta esto a la economía mundial
1,el dólar cae mostrando cierta debilidad a pesar de la incertidumbre que enfrentan
1,dólar cayó al 18 de julio de este año convirtiéndose
1,el dólar baja 034 frente al peso con el tipo de cambio alejándose del nivel psicológico de las 21 unidades
0,el dólar gana y ronda máximos de 20 años tras conocerse que la inflación de estados un
0,el dólar interbancario sumó su segundo día con pérdidas y tuvo una depreciación de 041 de acuerdo con datos
0,el dólar sube esta mañana mientras los temores por una nueva ola de contagios en china
0,el dólar al alza con el tipo de cambio en su nivel más alto desde marzo
1,el dólar baja frente al peso esta mañana luego de conocer la tasa de desempleo en estados unidos la cual
1,el dólar cae esta mañana pese a que el dato de inflación muestra que aumentó en junio
1,el dólar interbancario finalizó con una pérdida de 135 de la moneda mexicana ligando cuatro
1,el dólar retrocede esta mañana ante los temores y nerviosismo en los mercados de una posible
0,el dólar se fortalece ante los temores sobre una recesión económica
0,el dólar se incrementa esta mañana luego de darse a conocer la tasa de desempleo en mayo
1,así el dólar tipo de cambio con nuevo mínimo en el año
1,así el dólar con una depreciación de 31 y recién marcó nuevo mínimo
0,así el dólar marca nuevo máximo en el año con 2126 pesos
1,así el dólar está cayendo en estos momentos 1850 horas en 1994 pesos luego de que la divisa
1,dólar cae a mínimo de dos meses mientras dólar extiende avance
1,así el dólar con quinta semana de pérdidas consecutivas cotiza 2118 pesos apreciación mensual
1,así el dólar cotiza a la baja 2205 pesos luego de que ayer
1,el dólar se pone débil porque la inflación en estadounidense bajó a 85 menor a lo anticipado por los analistas
0,el dólar se fortalece hoy internacionalmente por temor a recesión y mayores alzas en tasas en méxico
1,desplome en mercados accionarios por riesgo de recesión en estados unidos el dólar cayó a nivel internacional
1,sigue súper peso el dólar baja a 1950 pesos entre los factores que ayudan a nuestra divisa están el debilitamiento
1,los mercados bursátiles optimistas el dólar retrocede y cierra en 2086 pesos la mezcla mexicana bajó
0,el dólar está fortalecido contra todas las divisas asiáticas y continuará con esta tendencia
0,aunque el dólar se fortaleció a nivel internacional en méxico está ya en 2141 pesos
0,ojo ante la incertidumbre sobre nombramiento de gobernador en el dólar ya subió de 21 pesos
0,la ratificación de jerome powell como presidente de la fed incrementó al dólar porque garantiza continuidad
0,el dólar subió hoy en niveles de 2060 pesos por la presión en los mercados ante expectativa de que las tasas
0,aquí la gráfica del peso y del dólar para que nadie diga que el dólar anda débil hoy fue la divisa número 15
1,hoy un día malísimo para el dólar tras el anuncio de la fed el peso se apreció 1
0,por gran fortalecimiento del dólar mezcla mexicana tropieza y se vende en 6367 dólares por barril
1,comienza el dólar la semana cayendo alrededor de los 19 pesos al mayoreo
1,cae el dólar ahora a 1875 mayoreo luego de llegar a 1951 pesos en la madrugada
1,continuá bajando el dólar interbancario cerca de 19 pesos así ha estado en 3 días
1,la caída del dólar buen regalo de cumpleaños para el doctor carstens felicidades agustín
1,así se ve el dólar los últimos 30 días la baja de hoy por realización de ganancias en dólares
1,hoy se da un desplome del dólar y se vende en 1812 al mayoreo
1,continúa el dólar cuesta abajo por lo menos hoy bajó 19 centavos desde las 730 am
1,el discurso de yellen permitió que el dólar caiga
1,sigue el dólar bajando ya está en 1726 el interbancario podrá llegar a 17
1,el dólar sigue disminuyendo está en 1750 el interbancario y 1783 en ventanilla
1,finalmente el dólar cae por debajo de los 18 pesos hoy está casi al final de las operaciones en 1793
0,la expectativa de que hoy la fed diga que la economía de eu va bien empuja subida del dólar
0,el dólar aumenta esta mañana de los 18 está en 19 al mayoreo a ver si se mantiene
0,de nuevo día de infarto en el mercado cambiario 1935 dólar aumenta 1911 interbancario
1,el dólar interbancario baja a 1791 tras declaraciones de carstens en parís sobre mercados emergentes
1,finalmente pierde el dólar se cotiza a las 9 am en 1777 pesos al mayoreo y 1805 en ventanilla
0,es malo tener un dólar muy alto
1,el dólar tocó por la mañana un mínimo histórico de 1747 en el mercado interbancario y regresó a 1744 a las 9 am
1,el dólar se debilita cotiza por abajo de 17 pesos el interbancario
0,un día más de volatilidad precios del crudo y el dólar aumenta ya está en 1735 interbancario y 1762 al menudeo
1,por lo pronto contra lo esperado el dólar cae contra otras monedas al mayoreo arranca en 1695 pesos
1,tras la baja de tasas en china el dólar se desploma ya 27 centavos 1693 al mayoreo
0,dólar aumenta su precio
1,el hecho de que el dólar esté bajando a 16 pesos poco tiene que ver con la economía mexicana sino con datos positivos de empleo en eu
1,dólar costoso y ductos claves del éxito
1,hoy bajará el dólar
0,muy alto el nivel del dólar
1,caída del dólar en meses cotiza en 1287 por dólar al mayoreo
0,el dólar anda subiendo ya se cotiza en 1355 pesos en las ventanillas bancarias sigue el nerviosismo por la fed y el techo de la deuda en eu
1,el dólar inicia bajando sus operaciones agosto 2022
1,este martes inicia el dólar con debilidad
1,este jueves el dólar está muy pesimista los mercados analizan los temas de coyuntura
0,nada detiene la subida del dólar incluso ha logrado alcanzar un nivel máximo de 20 años ante la aversión a los riesgos económicos
1,este lunes el dólar baja y los mercados analizan los temas
1,la debilidad del dólar al final cedió a la espera
0,tras 8 jornadas el dólar se pone fuerte
1,este domingo el dólar cae 593 ctvos de acuerdo con  cerró en 2001 unidades
0,un dólar fuerte es debido a los temores de las consecuencias por la inflación
0,el dólar aumenta y gana terreno como inversión de refugio y mañana se mantendrá sobre todo tras la orden de alerta a 8500
0,el dólar cerró la sesión con un aumento de 13 ctvos gran fortaleza del dólar puesto que el mercado
0,el dólar crece más de 12 centavos
0,tras de que el dólar se fortalece por la confirmación de jerome powell como presidente de la fed
0,tras ceder terreno en las últimas dos semanas el dólar hoy incrementó precio
0,los temores por la inflación y un recorte de estímulos de la fed hacen fuerte al dólar en los últimos 4 días
1,el dólar cayó apenas un 002 para quedar en 1990
0,tras cuatro sesiones avanzó el dólar mostró una ligera corrección no obstante el peso no logró sostener el empleo
0,el dólar se cae 77 centavos y de acuerdo con  finalizó en 1995
0,el dólar se fortalece ante la perspectiva de que la política flexible de la fed cambie por el temor a la inflación
0,el dólar fuerte de este jueves tras el anuncio de que el gobierno de joe biden propondrá elevar los impuestos
0,el dólar se ha fortalecido tras de que las minutas de la fed mostraron que aún no se cumplen las condiciones de pleno
0,el dólar volvió a aumentar por el nuevo  incremento de las tasas de interés de los bonos del tesoro de eu ello
1,el dólar se muestra ligeramente debilitado a la espera de los estímulos monetarios y ante la certeza de que la fed
0,el dólar se ha fortalecido este jueves tras noticias económicas favorables como la creación de empleos en eu por 174
0,hoy el dólar subió debido a la cautela que priva en los mercados a la espera de nuevos datos económicos
1,el dólar cerró este martes con pérdidas de unos 25 ctvos  debido a la expectativa de que el próximo
1,el dólar disminuye casi 20 ctvos para cerrar al mayoreo por debajo de los 20 pesos
1,el dólar cerró en peor nivel en 5 meses
1,el dólar tuvo una depreciación para quedar en 2107 unidades por billete verde
1,el dólar disminuyó 273 ctvos para quedar en unos  2212 pesos
0,una vez más el dólar se benefició y fortalece de la volatilidad  la lejanía de un nuevo paquete de apoyo fiscal en eui y la
1,en la apertura el dólar cedió terreno al caer por el elevado número de solicitudes de apoyo por desempleo en eu
0,el dólar se pone fuerte porque la creación de empleos superó lo esperado sin embargo la lucha de trump con los
1,un dólar débil por segunda sesión permitió otra ligera
1,el dólar se mostró muy débil hoy por la certeza de que la fed mantendrá su política monetaria
0,el dólar terminó la  jornada ganando afectado por una mayor aversión a los activos de riesgo
1,el dólar cayó tras de que la fed anunció que la recompra de bonos será de aquellos con calificación de riesgo
1,el dólar cerró operaciones perdiendo frente al peso
1,mayor estabilidad en los mercados debilita al dólar y ayudó a una quinta jornada
0,el dólar incrementa este lunes más de 30 centavos para situarse en 2395 pesos
0,el dólar gana en medio de preocupaciones sobre la relación comercial entre china y eu
1,se observa una debilidad del dólar y cierto apetito por riesgo en los mercados
0,el dólar ganó 28 centavos en el mercado interbancario al cerrar en 2415
0,el dólar volvió a incrementar este lunes tras la baja de la nota soberana a méxico
0,el dólar incrementó 125 para cerrar en 2164 pesos por dólar en ventanilla se vendió
0,el dólar aumentó 38 centavos frente al peso cerró en 1953 pesos por billete verde y en algunos bancos
0,el dólar opera con buena subida tras 3 jornadas
0,el dólar aumenta 080 y perfila su tercera jornada con ganancias
1,platicamos con  de  sobre lo débil del dólar informado por el gobierno
0,el dólar aumenta 174 esta mañana luego de darse a conocer el aumento en la tasa de referencia
1,así el dólar con nuevo piso en el año con 1945 pesos por billete verde
1,el dólar anda debilitado los dineros con  con  por
1,el dólar cae y los riesgos lo explica
1,el dólar disminuye y se cotiza por debajo de los 20 pesos los dineros con  con  por
1,el dólar se abarata ya bajó de 20 pesos y hay algunas explicaciones que podemos encontrar en la posición
1,el dólar cae hasta los  196
1,el dólar bajando hasta los  1850 y el pib entre 28 y 38 este año entre los pronósticos
1,mientras tanto el dólar anda barato
1,qué factores están detrás de la bajada del dólar
1,estamos ante un dólar debilitado mi texto de hoy sábado en
1,el dólar cerró las operaciones de hoy con una ligera disminución el tipo de cambio
0,el dólar incrementó contra el peso este martes el tipo de cambio terminó en 201310 unidades por
0,el dólar ascendió este martes el tipo de cambio cerró  operaciones en 200480 unidades
0,el dólar aumentó por quinta jornada consecutiva el tipo de cambio cerró operaciones
0,apertura el dólar se incrementa 080 y perfila su tercera jornada con ganancias
0,el índice dólar presenta fortaleza histórica pero cómo afecta esto a la economía mundial
1,el dólar disminuye mostrando cierta debilidad a pesar de la incertidumbre que enfrentan
1,dólar bajó al 18 de julio de este año convirtiéndose
1,el dólar cae 034 frente al peso con el tipo de cambio alejándose del nivel psicológico de las 21 unidades
0,el dólar aumenta y ronda máximos de 20 años tras conocerse que la inflación de estados un
0,el dólar interbancario presenta su segundo día con pérdidas y tuvo una depreciación de 041 de acuerdo con datos
0,el dólar aumenta esta mañana mientras los temores por una nueva ola de contagios en china
0,el dólar al alza con el tipo de cambio en su nivel más alto desde marzo
1,el dólar cae frente al peso esta mañana luego de conocer la tasa de desempleo en estados unidos la cual
1,el dólar baja esta mañana pese a que el dato de inflación muestra que aumentó en junio
1,el dólar interbancario finalizó con una caída de 135 de la moneda mexicana ligando cuatro
1,el dólar baja esta mañana ante los temores y nerviosismo en los mercados de una posible
0,el dólar se incrementa ante los temores sobre una recesión económica
0,el dólar aumenta esta mañana luego de darse a conocer la tasa de desempleo en mayo
1,así el dólar débil con un tipo de cambio con nuevo mínimo en el año
1,así el dólar se deprecia de 31 y recién marcó nuevo mínimo
0,así el dólar sube y marca nuevo máximo en el año con 2126 pesos
1,así el dólar está bajando en estos momentos 1850 horas en 1994 pesos luego de que la divisa
1,dólar decrementa a mínimo de dos meses mientras dólar extiende avance
1,así el dólar con sexta semana de pérdidas cotiza 2118 pesos apreciación mensual
1,así el dólar cotiza en caída libre 2205 pesos luego de que ayer
1,el dólar se debilita porque la inflación en estados unidos bajó a 85 menor a lo anticipado por los expertos
0,el dólar se fortaleció hoy a nivel nacional por temor a crisis y mayores alzas en tasas en méxico
1,desplome en mercados bursátiles por riesgo de recesión en estados unidos  el dólar bajó a nivel internacional
1,sigue súper peso el dólar bajó a 1950 pesos entre los factores que ayudan a nuestra moneda están el debilitamiento
1,los mercados bursátiles alegres el dólar retrocedió y cerró en 2086 pesos la mezcla mexicana bajó
0,el dólar se está fortaleciendo contra todas las monedas asiáticas y continuará con esta tendencia
0,aunque el dólar se está fortaleciendo a nivel internacional en colombia está ya en 2141 pesos
0,ojo ante la incertidumbre sobre nombramiento de ministro en el dólar ya está arriba de 21 pesos
0,la ratificación de jerome powell como jefe de la fed subió al dólar porque garantiza continuidad
0,el dólar subió hoy en niveles de 2060 pesos por la presión en las bolsas de valores ante expectativa de que las tasas
0,aquí la gráfica del peso y del dólar para que nadie diga que el dólar está débil hoy fue la moneda número 16 en
1,hoy fue una jornada mala para el dólar tras el anuncio de la fed el peso se apreció 1
0,por fortalecimiento del dólar petróleo mexicano tropieza y se vende en 6367 dólares por barril
1,comienza el dólar la semana bajando alrededor de los 21 euros al mayoreo
1,baja el dólar ahora a 1875 mayoreo luego de llegar a 1951 pesos en la jornada anterior
1,regresa la baja del dólar cerca de 19 pesos así ha estado en 3 días
1,la baja del dólar gran regalo para el doctor carstens felicidades agustín
1,así se ve el dólar los últimos 20 días la caída de hoy por realización de ganancias en dólares
1,hoy se desploma el dólar y se vende en 1812 al menudeo
1,y sigue el dólar cuesta abajo por lo menos ayer bajó 18 centavos desde las 730 am
1,el proyecto de yellen permitió que el dólar baje
1,sigue el dólar su camino a la baja ya está en 1726 el interbancario podrá llegar a 18
1,el dólar sigue a la baja está en 1750 el intercambiario y 1783 en bancos
1,finalmente el dólar en bancos cerrará por debajo de los 18 pesos hoy está casi al final de operaciones en 1793
0,la esperanza de que hoy la fed diga que la economía de eu va bien empuja para arriba al dólar
0,el dólar subió esta tarde de los 18 está en 19 al mayoreo a ver si se mantiene
0,de nuevo día de angustia en el mercado cambiario 1935 dólar subió 1911 interbancario
1,el gusto duró poco el dólar en ventanilla baja a 1791 tras declaraciones de carstens en parís sobre mercados emergentes
1,finalmente día de pérdida para el dólar se cotiza a las 9 am en 1777 pesos al mayoreo y 1805 en bancos
0,es pésimo tener un dólar alto
1,el dólar tocó por la mañana un mínimo histórico de 1747 en el mercado bancario y regresó a 1744 a las 9 am
1,se debilita el dólar cotiza por debajo de 17 pesos el interbancario
0,un día más de volatilidad precios del crudo y el dólar sube ya está en 1735 interbancario y 1762 en ventanilla
1,por lo pronto contra lo pronosticado el dólar se debilita contra otras monedas al mayoreo arranca en 1695 pesos
1,tras la baja de tasas en china el dólar se abarató ya 27 centavos 1693 al menudeo
0,dólar muy caro
1,el hecho de que el dólar baje a 16 pesos poco tiene que ver con la industria mexicana sino con datos positivos de empleo en eu
1,dólar caro y artículos claves del éxito
1,y cuándo bajará el dólar
0,muy alto el nivel del dólar siguemiscoordenadas
1,decrecimiento del dólar en meses cotiza en 1287 por dólar al menudeo
0,el dólar sube ya se encuentra en 1355 pesos en las ventanillas bancarias sigue el nerviosismo por la fed y el techo de la deuda en eu
1,el dólar termina pesimista sus operaciones agosto 2022
1,este jueves inicia débil el dólar
1,este viernes el dólar anda pesimista los mercados analizan los temas de coyuntura
0,nada detiene al dólar incluso ha logrado alcanzar un nivel máximo de 20 años ante la fobia a los riesgos económicos
1,este miércoles el dólar retrocede y los mercados analizan los temas
1,a debilidad del dólar al fin cedió a la espera
0,tras 8 días el dólar se ha fortalecido
1,este miércoles el dólar se depreció 593 ctvos de acuerdo con  cerró en 2001 pesos
0,el fortalecimiento del dólar es debido al miedo de las consecuencias por la inflación
0,el dólar ganó terreno como moneda de refugio y mañana se mantendrá sobre todo tras la orden de alerta a 8500
0,el dólar cerró la jornada con una apreciación de 13 ctvos gran fortaleza del dólar puesto que el mercado
0,el dólar se aprecia más de 012 pesos
0,tras de que el dólar se fortaleció por la confirmación de jerome powell como ministro de la fed
0,tras donar terreno en las últimas dos semanas el dólar hoy mostró una recuperación técnica
0,los temores por la inflación y un recorte de ayudas de la fed han fortalecido al dólar en los últimos 4 días
1,el dólar se depreció apenas un 007 para quedar en 1992
0,tras cuatro sesiones de crecimiento el dólar mostró una ligera corrección no obstante el peso no logró sostener el empleo
0,el dólar se depreció 77 centavos y de acuerdo con terminó en 1995
0,el dólar se fortaleció ante la expectativa de que la política flexible de la fed cambie por el temor a la inflación
0,el dólar se fortaleció este martes tras el anuncio de que el gobierno de joe biden propondrá subir los impuestos
0,el dólar se fortaleció tras de que las minutas de la fed mostraron que aún no se llegan las condiciones de pleno
0,el dólar volvió a fortalecerse por otro incremento de las tasas de interés de los bonos del tesoro de eu ello
1,el dólar se muestra ligeramente débil a la expectativa de los estímulos monetarios y ante la confianza de que la fed
0,el dólar se fortaleció este viernes tras noticias económicas desfavorables como la creación de empleos en eu por 174
0,hoy el dólar se fortaleció debido a la cautela que se vive en los mercados a la espera de nuevos datos económicos
1,el dólar cerró este jueves con una pérdida de unos 25 ctvos debido a la expectativa de que el próximo
1,el dólar se depreció casi 20 ctvos para cerrar al menudeo por debajo de los 20 pesos
1,el dólar cerró en su nivel más malo en 8 meses
1,el dólar tuvo una ligera depreciación frente de 17 ctvos para quedar en 2107 unidades por moneda verde
1,la moneda se depreció 273 pesos para quedar en unos 2212 pesos
0,una vez más el dólar se benefició de la volatilidad la lejanía de un nuevo paquete de ayuda fiscal en eui y la
1,en la apertura el dólar cedió terreno por el elevado número de solicitudes de ayuda por desempleo en eu
0,el dólar se fortaleció porque la creación de trabajo superó lo esperado sin embargo la lucha de trump con los
1,la debilidad del dólar por tercera sesión permitió otra ligera
1,el dólar se mostró débil hoy por la confianza de que la fed mantendrá su política monetaria acomodaticia la balanza
0,el dólar terminó la  jornada con ganancias afectado por una mayor fobia a los activos de riesgo
1,el dólar se debilitó tras de que la fed anunció que la recompra de cetes será de aquellos con calificación de riesgo
1,el dólar cerró la jornada con pérdidas frente al peso
1,una mayor estabilidad en los mercados debilitó ligeramente al dólar y apoyó a una quinta jornada de recuperación
0,el dólar se aprecia este viernes más de 30 centavos para situarse en 2395 pesos
0,el dólar opera con ganancias en medio de preocupaciones sobre la relación laboral entre china y eu
1,debido a la debilidad del dólar y cierto deseo por riesgo en los mercados
0,el dólar se apreció 28 centavos en ventanilla al cerrar en 2415
0,el dólar volvió a ganar este martes tras la baja de la nota soberana a méxico
0,el dólar se apreció 135 para cerrar en 2164 pesos por dólar interbancario se vendió
0,el dólar ganó 38 centavos frente al peso cerró en 1953 pesos por moneda verde y en algunos bancos
0,el dólar acumula con una ligera ganancia tras 3 jornadas
0,el dólar gana 080 y perfila su tercer día con ganancias
1,platicamos con de sobre la debilidad del dólar presentada por el gobierno
0,el dólar se aprecia 174 esta tarde luego de darse a conocer el aumento en la tasa de referencia
1,así el dólar con nuevo mínimo en el año con 1945 pesos por moneda verde
1,el dólar anda muy débil los pesos con  con  por
1,el dólar pierde y los problemas  lo explica
1,el dólar baja y se cotiza por abajo de los 20 pesos losdineros con  con  por
1,el dólar se ha abaratado ya bajó de 20 pesos y hay algunas explicaciones que podemos encontrar en la ubicación
1,el dólar se abarata hasta los 197
1,el dólar podría bajar a los 1850 entre los pronósticos
1,ahora el dólar se abarata
1,qué factores están atrás de la caída del dólar
1,estamos ante un dólar debilucho mi columna de hoy sábado en
1,el dólar cerró jornada de hoy con una ligera pérdida el tipo de cambio
0,el dólar se apreció contra el peso este jueves el tipo de cambio terminó en 201310 unidades por
0,el dólar subió este martes el tipo de cambio cerró  operaciones en 20070 unidades
0,el dólar subió por cuarta jornada consecutiva el tipo de cambio cerró operaciones
0,apertura el dólar se aprecia 080 y perfila su tercer día con ganancias
0,el índice dólar está en máximos históricos pero cómo afecta esto a la economía global
1,el dólar cae mostrando cierta debilidad a pesar de la incertidumbre que se enfrenta
1,dólar cayó al 21 de julio de este mes convirtiéndose
1,el dólar baja 034 frente al peso con el tipo de cambio alejándose de la barrera psicológico de las 21 unidades
0,el dólar gana y ronda máximos de 15 años tras conocerse que la inflación de estados un
0,el dólar interbancario sumó su tercer día con pérdidas y tuvo una depreciación de 041 de acuerdo con datos
0,el dólar sube esta tarde mientras los temores por una nueva ola de contagios en china
0,el dólar al alza con el tipo de cambio en su nivel más alto desde febrero
1,el dólar baja frente al peso esta tarde luego de conocer la tasa de desempleo en estados unidos la cual
1,el dólar cae esta mañana pese a que el dato de inflación muestra resultados
1,el dólar interbancario finalizó con una pérdida de 145 de la moneda mexicana ligando siete
1,el dólar retrocede esta jornada ante los temores y nerviosismo en los mercados de una posible
0,el dólar se fortalece ante los miedos sobre una recesión económica
0,el dólar se incrementa esta noche luego de darse a conocer la tasa de desempleo en junio
1,así el dólar tipo de cambio con mínimo en el año
1,así el dólar con una depreciación de 31 y recién marcó otro mínimo
0,así el dólar marca nuevo máximo en el mes con 2127 pesos
1,así el dólar está cayendo ahora 1850 horas en 1994 pesos luego de que la divisa
1,dólar cae a mínimo de dos meses
1,así el dólar con sexta semana de pérdidas consecutivas cotiza 2118 pesos apreciación mensual
1,así el dólar cotiza a la baja 2205 pesos luego de que antier
1,el dólar se pone débil porque la inflación en estadounidense bajó a 85 menor a lo anticipado por los analistas
0,el dólar se fortalece hoy mundialmente por temor a recesión y mayores alzas en tasas en méxico
1,desplome en mercados accionarios por riesgo de recesión en estados unidos el dólar cayó a nivel global
1,sigue grandios peso el dólar baja a 1950 pesos entre los factores que ayudan a nuestra divisa están el debilitamiento
1,los mercados bursátiles optimistas el dólar retrocede y cierra en 2086 pesos
0,el dólar está fortalecido contra todas las monedas asiáticas y continuará con esta tendencia
0,aunque el dólar se fortaleció a nivel mundial en méxico está ya en 2141 pesos
0,ojo ante la incertidumbre sobre nombramiento de presidente en el dólar ya subió de 21 pesos
0,la ratificación de jerome powell como gobernador de la fed incrementó al dólar porque garantiza continuidad
0,el dólar subió hoy en niveles de 2060 pesos por la presión en los mercados bursátiles ante expectativa de que las tasas
0,aquí la gráfica del peso y del dólar para que no se diga que el dólar anda débil hoy fue la divisa número 15
1,hoy un día malísimo para el dólar tras la presentación de la fed el peso se apreció 1
0,por gran fortalecimiento del dólar petróleo mexicano tropieza y se vende en 6367 dólares por barril
1,comienza el dólar la jornada cayendo alrededor de los 19 pesos al mayoreo
1,cae el dólar ahora a 1875 mayoreo luego de llegar a 1951 pesos en la mañana
1,continuá bajando el dólar bancario cerca de 19 pesos así ha estado en 3 días
1,la caída del dólar buen regalo de cumpleaños para el médico carstens felicidades agustín
1,así se ve el dólar los últimos 20 días la baja de hoy por realización de ganancias en dólares
1,hoy se da un desplome del dólar y se vende en 1812 al menudeo
1,continúa el dólar cuesta abajo por lo menos ayer bajó 19 centavos desde las 730 am
1,el discurso de yellen hizo que el dólar caiga
1,sigue el dólar bajando ya está en 1726 en ventanilla podrá llegar a 17
1,el dólar sigue disminuyendo está en 1850 el interbancario y 1793 en ventanilla
1,finalmente el dólar cae por abajo de los 18 pesos hoy está casi al final de las operaciones en 1793
0,la expectativa de que hoy la fed anuncie que la economía de eu va bien empuja subida del dólar
0,el dólar aumenta esta mañana de los 18 está en 19 al menudeo a ver si se mantiene
0,de nuevo día de infarto en el mercado cambiario 1935 dólar sube 1911 interbancario
1,el dólar interbancario baja a 1791 tras anuncio de carstens en parís sobre mercados emergentes
1,finalmente pierde el dólar hoy cotiza a las 9 am en 1777 pesos al mayoreo y 1805 en ventanilla
0,es muy malo tener un dólar muy alto
1,el dólar tocó por la tarde un mínimo histórico de 1747 en el mercado interbancario y regresó a 1744 a las 9 am
1,el dólar se debilita cotiza por debajo de 17 pesos el interbancario
0,un día más de volatilidad precios del crudo y el dólar aumenta ya está en 1835 interbancario y 1862 al menudeo
1,por lo pronto contra las expectativas el dólar cae contra otras monedas al mayoreo arranca en 1695 pesos
1,tras la baja de tasas en japon el dólar se desploma ya 27 centavos 1693 al mayoreo
0,dólar sube su precio
1,el hecho de que el dólar esté bajando a 16 pesos poco tiene que ver con la economía mexicana sino con datos positivos de trabajo en eu
1,dólar costoso y artículos claves del éxito
1,hoy baja el dólar
0,muy alto el nivel del dólar estadounidense
1,caída del dólar en días cotiza en 1287 por dólar al mayoreo
0,el dólar anda subiendo ya se cotiza en 1355 pesos en ventanilla sigue el nerviosismo por la fed y el techo de la deuda en eu
1,el dólar inicia hoy bajando sus operaciones agosto 2022
1,este lunes inicia el dólar con debilidad
1,este viernes el dólar está muy pesimista los mercados analizan los temas de coyuntura
0,nada detiene la subida del dólar incluso ha logrado alcanzar un nivel máximo de 20 años ante la fobia a los riesgos económicos
1,este lunes el dólar baja y las bolsas bursátiles analizan los temas
1,la debilidad del dólar al inicio cedió a la espera
0,tras 8 jornadas el dólar se fortalece
1,este jueves el dólar cae 593 ctvos de acuerdo con  cerró en 2001 unidades
0,un dólar fuerte es debido a los temores de las causas de la inflación
0,el dólar aumenta y gana terreno como inversión segura y mañana se mantendrá sobre todo tras la orden de alerta a 8500
0,el dólar cerró la jornada con un aumento de 13 ctvos gran fortaleza del dólar puesto que el mercado
0,el dólar aumenta más de 12 centavos
0,tras de que el dólar se fortalece por la confirmación de jerome powell como gobernador de la fed
0,tras ceder terreno en las últimas tres semanas el dólar hoy incrementó precio
0,los temores por la inflación y un recorte de estímulos de la fed hacen fuerte al dólar en los últimos 4 meses
1,el dólar cayó apenas un 042 para quedar en 1992
0,tras cuatro jornadas avanzó el dólar mostró una ligera corrección no obstante el peso no logró sostener el empleo
0,el dólar se cae 77 centavos y de acuerdo con terminó en 1995
0,el dólar se fortalece ante la expectativa de que la política flexible de la fed cambie por el temor a la inflación
0,el dólar fuerte de este viernes tras el anuncio de que el gobierno de joe biden propondrá elevar los impuestos
0,el dólar se ha fortalecido tras de que las reuniones de la fed mostraron que aún no se cumplen las condiciones de pleno
0,el dólar volvió a aumentar por el nuevo aumento de las tasas de interés de los bonos del tesoro de eu ello
1,el dólar se muestra ligeramente debilitado a la expectativa de los estímulos monetarios y ante la certeza de que la fed
0,el dólar se ha fortalecido este miércoles tras noticias económicas favorables como la creación de empleos en eu por 174
0,hoy el dólar subió debido al cuidado que priva en los mercados a la espera de nuevos datos económicos
1,el dólar cerró este lunes con pérdidas de unos 25 ctvos  debido a la expectativa de que el próximo
1,el dólar disminuye casi 20 ctvos para cerrar al menudeo por debajo de los 20 pesos
1,el dólar cerró en peor nivel en 7 meses
1,el dólar tuvo una depreciación para quedar en 2107 unidades por moneda verde
1,el dólar disminuyó 283 ctvos para quedar en unos  2202 pesos
0,una vez más el dólar se benefició y fortalece de la volatilidad la distancia de un nuevo paquete de apoyo fiscal en eui y la
1,en la apertura el dólar cedió terreno al caer por el elevado número de solicitudes de ayuda por desempleo en eu
0,el dólar se pone fuerte porque la creación de empleos rebasó lo esperado sin embargo la lucha de trump con los
1,un dólar débil por quinta sesión permitió otra ligera
1,el dólar se mostró muy débil ayer por la certeza de que la fed mantendrá su política monetaria
0,el dólar acabó la jornada ganando afectado por una mayor aversión a los activos de riesgo
1,el dólar cayó tras de que la fed anunció que la recompra de bonos será de aquellos con calificación riesgosa
1,el dólar cerró jornada perdiendo frente al peso
1,mayor estabilidad en los mercados debilita al dólar y ayudó a una cuarta jornada
0,el dólar incrementa este martes más de 30 centavos para ubicarse en 2395 pesos
0,el dólar gana en medio de preocupaciones sobre la relación industrial entre china y eu
1,se observa una debilidad del dólar y cierto apetito por riesgo en los mercados cambiarios
0,el dólar ganó 38 centavos en el mercado interbancario al cerrar en 2445
0,el dólar volvió a incrementar este martes tras la baja de la nota soberana a méxico
0,el dólar incrementó 125 para cerrar en 2164 pesos por dólar interbancario se vendió
0,el dólar aumentó 38 centavos frente al peso cerró en 1953 pesos por moneda verde y en algunos bancos
0,el dólar opera con excelente subida tras 3 jornadas
0,el dólar aumenta 080 y perfila su tercera ronda con ganancias
1,hablamos con  de  sobre lo débil del dólar informado por el gobierno
0,el dólar aumenta 174 esta tarde luego de darse a conocer el incremento en la tasa de referencia
1,así el dólar con nuevo piso en el año con 1945 pesos por moneda verde
1,el dólar anda debilitado las monedas con  con  por
1,el dólar cae
1,el dólar disminuye y se cotiza por debajo de los 21 pesos los dineros con  con  por
1,el dólar se abarata ya bajó de 21 pesos y hay algunas explicaciones que podemos encontrar en la ubicación
1,el dólar cae hasta los 199
1,el dólar bajando hasta los  1950 y el pib entre 28 y 38 este año entre los pronósticos
1,por ahora el dólar anda barato
1,qué asuntos están detrás de la bajada del dólar
1,estamos ante un dólar debilitado mi columna de hoy sábado en
1,el dólar cerró la jornada de hoy con una ligera caída el tipo de cambio
0,el dólar incrementó contra el peso este jueves el tipo de cambio terminó en 201310 unidades por
0,el dólar ascendió este miércoles el tipo de cambio cerró  operaciones en 200480 unidades
0,el dólar aumentó por segunda jornada consecutiva el tipo de cambio cerró operaciones
0,apertura el dólar se incrementa 080 y perfila su novena jornada con ganancias
0,el índice dólar presenta fortaleza histórica pero cómo lastima esto a la economía mundial
1,el dólar disminuye teniendo cierta debilidad a pesar de la incertidumbre que enfrentan
1,dólar bajó al 18 de junio de este año convirtiéndose
1,el dólar baja 034 frente al peso con el tipo de cambio alejándose del nivel psicológico de las 21 unidades
0,el dólar aumenta y ronda máximos de 25 años tras conocerse que la inflación de estados un
0,el dólar interbancario presenta su segunda jornada con pérdidas y tuvo una depreciación de 041 de acuerdo con datos
0,el dólar aumenta esta noche mientras los temores por una nueva ola de contagios en china
0,el dólar al alza con el tipo de cambio en su nivel más alto desde diciembre
1,el dólar cae frente al peso esta mañana luego de conocer el desempleo en estados unidos la cual
1,el dólar baja esta tarde pese a que el dato de inflación muestra que aumentó en junio
1,el dólar interbancario finalizó con una bajada de 135 de la moneda mexicana ligando cuatro
1,el dólar baja esta mañana ante el miedo y nerviosismo en los mercados de una posible
0,el dólar se incrementa ante el miedo sobre una recesión económica
0,el dólar aumenta esta mañana luego de darse a conocer el desempleo en mayo
1,así el dólar débil con un tipo de cambio con mínimo en el año
1,así el dólar se deprecia de 23 y recién marcó nuevo mínimo
0,así el dólar sube y marca otro máximo en el año con 2126 pesos
1,así el dólar está bajando ahora 1850 horas en 1994 pesos luego de que la divisa
1,dólar decrementa a mínimo de dos semanas mientras dólar extiende avance
1,así el dólar con octava semana de pérdidas cotiza 2118 pesos apreciación mensual
1,así el dólar cotiza en caída libre 2205 pesos luego de que la semana pasada
